<?xml version="1.0" encoding="UTF-8" standalone="no"?>
<svg
   xmlns:dc="http://purl.org/dc/elements/1.1/"
   xmlns:cc="http://creativecommons.org/ns#"
   xmlns:rdf="http://www.w3.org/1999/02/22-rdf-syntax-ns#"
   xmlns:svg="http://www.w3.org/2000/svg"
   xmlns="http://www.w3.org/2000/svg"
   xmlns:xlink="http://www.w3.org/1999/xlink"
   xmlns:sodipodi="http://sodipodi.sourceforge.net/DTD/sodipodi-0.dtd"
   xmlns:inkscape="http://www.inkscape.org/namespaces/inkscape"
   id="svg2"
   viewBox="0 0 1920 1080"
   version="1.0"
   inkscape:version="0.91 r13725"
   width="100%"
   height="100%"
   sodipodi:docname="airport.svg">
  <sodipodi:namedview
     pagecolor="#ffffff"
     bordercolor="#666666"
     borderopacity="1"
     objecttolerance="10"
     gridtolerance="10"
     guidetolerance="10"
     inkscape:pageopacity="0"
     inkscape:pageshadow="2"
     inkscape:window-width="1600"
     inkscape:window-height="845"
     id="namedview55"
     showgrid="false"
     inkscape:zoom="0.40145883"
     inkscape:cx="778.16682"
     inkscape:cy="494.14203"
     inkscape:window-x="0"
     inkscape:window-y="27"
     inkscape:window-maximized="1"
     inkscape:current-layer="layer8" />
  <defs
     id="defs4">
    <linearGradient
       id="linearGradient3886">
      <stop
         style="stop-color:#374561;stop-opacity:1;"
         offset="0"
         id="stop3888" />
      <stop
         id="stop3896"
         offset="0.25"
         style="stop-color:#374561;stop-opacity:0.74901961;" />
      <stop
         id="stop3894"
         offset="0.5"
         style="stop-color:#374561;stop-opacity:0.49803922;" />
      <stop
         style="stop-color:#000000;stop-opacity:1;"
         offset="1"
         id="stop3890" />
    </linearGradient>
    <linearGradient
       id="linearGradient3291">
      <stop
         id="stop3293"
         stop-color="#676767"
         offset="0" />
      <stop
         id="stop3299"
         stop-color="#fff"
         offset=".02" />
      <stop
         id="stop3297"
         stop-color="#dfdfe1"
         offset=".04" />
      <stop
         id="stop3303"
         stop-color="#efeff0"
         offset=".96" />
      <stop
         id="stop3301"
         stop-color="#fff"
         offset=".98" />
      <stop
         id="stop3295"
         stop-color="#676767"
         offset="1" />
    </linearGradient>
    <linearGradient
       id="linearGradient3231">
      <stop
         id="stop3233"
         stop-color="#fff"
         offset="0" />
      <stop
         id="stop3235"
         stop-opacity="0"
         offset="1" />
    </linearGradient>
    <linearGradient
       id="linearGradient3237"
       y2="423.04001"
       xlink:href="#linearGradient3231"
       gradientUnits="userSpaceOnUse"
       x2="656.59998"
       gradientTransform="matrix(1.0092,0,0,1.0058,-9.9652,2.1515)"
       y1="97.767998"
       x1="525.28003" />
    <radialGradient
       id="radialGradient3257"
       xlink:href="#linearGradient3231"
       gradientUnits="userSpaceOnUse"
       cy="101.43"
       cx="368.78"
       gradientTransform="matrix(1,0,0,0.95,0,5.0362)"
       r="3.4688001" />
    <linearGradient
       id="linearGradient3289"
       y2="438.17001"
       xlink:href="#linearGradient3291"
       gradientUnits="userSpaceOnUse"
       x2="724.58002"
       gradientTransform="matrix(1.0028,0,0,0.9632,-1.0442,36.361)"
       y1="438.17001"
       x1="19.122999" />
    <linearGradient
       id="linearGradient3321"
       y2="267.47"
       gradientUnits="userSpaceOnUse"
       x2="611.14001"
       gradientTransform="matrix(1,0,0,0.99361,0,0.72801)"
       y1="267.47"
       x1="130.31">
      <stop
         id="stop3315"
         stop-color="#9c5da6"
         offset="0" />
      <stop
         id="stop3317"
         stop-color="#5b325b"
         offset="1" />
    </linearGradient>
    <linearGradient
       id="linearGradient3339"
       y2="472.51999"
       gradientUnits="userSpaceOnUse"
       x2="359.07999"
       gradientTransform="matrix(0.99992,0,0,1.0177,1.2423,-21.78)"
       y1="465.67001"
       x1="359.07999">
      <stop
         id="stop3335"
         stop-color="#e5e6e8"
         offset="0" />
      <stop
         id="stop3337"
         stop-color="#4c5252"
         offset="1" />
    </linearGradient>
    <linearGradient
       id="linearGradient3415"
       y2="459.79999"
       xlink:href="#linearGradient3291"
       gradientUnits="userSpaceOnUse"
       x2="725.56"
       gradientTransform="matrix(1.0001,0,0,0.88472,-0.03056,51.617)"
       y1="459.79999"
       x1="18.142" />
    <linearGradient
       id="linearGradient3447"
       y2="478.26999"
       gradientUnits="userSpaceOnUse"
       x2="695.5"
       gradientTransform="matrix(1.0083,0,0,1,-3.098,-2.7751)"
       y1="484.17001"
       x1="700.01001">
      <stop
         id="stop3391"
         offset="0" />
      <stop
         id="stop3393"
         stop-color="#fbfcff"
         stop-opacity="0"
         offset="1" />
    </linearGradient>
    <linearGradient
       id="linearGradient3453"
       y2="485.26999"
       gradientUnits="userSpaceOnUse"
       x2="329.66"
       gradientTransform="matrix(1.0127,0,0,1,-6.2255,-2.7751)"
       y1="473.48999"
       x1="329.66">
      <stop
         id="stop3372"
         stop-color="#8f9091"
         offset="0" />
      <stop
         id="stop3374"
         stop-color="#323b3b"
         offset="1" />
    </linearGradient>
    <linearGradient
       id="linearGradient3466"
       y2="485.04001"
       gradientUnits="userSpaceOnUse"
       x2="334.45001"
       gradientTransform="matrix(1.0083,0,0,0.95399,-3.098,19.287)"
       y1="470.29999"
       x1="334.45001">
      <stop
         id="stop3356"
         stop-color="#d3d5d7"
         offset="0" />
      <stop
         id="stop3483"
         stop-color="#86898a"
         offset=".5" />
      <stop
         id="stop3358"
         stop-color="#171b1b"
         offset="1" />
    </linearGradient>
    <linearGradient
       id="linearGradient3471"
       y2="473.95001"
       gradientUnits="userSpaceOnUse"
       x2="43.948002"
       gradientTransform="matrix(1.0578,0,0,1.0104,-4.9081,-7.6835)"
       y1="479.5"
       x1="38.150002">
      <stop
         id="stop3475"
         stop-opacity=".30348"
         offset="0" />
      <stop
         id="stop3477"
         stop-color="#fbfcff"
         stop-opacity="0"
         offset="1" />
    </linearGradient>
    <linearGradient
       id="linearGradient3471-7"
       y2="473.95001"
       gradientUnits="userSpaceOnUse"
       x2="43.948002"
       gradientTransform="matrix(1.0578,0,0,1.0104,-4.9081,-7.6835)"
       y1="479.5"
       x1="38.150002">
      <stop
         id="stop3475-7"
         stop-opacity=".30348"
         offset="0" />
      <stop
         id="stop3477-1"
         stop-color="#fbfcff"
         stop-opacity="0"
         offset="1" />
    </linearGradient>
    <linearGradient
       id="linearGradient3291-5">
      <stop
         id="stop3293-1"
         stop-color="#676767"
         offset="0" />
      <stop
         id="stop3299-1"
         stop-color="#fff"
         offset=".02" />
      <stop
         id="stop3297-1"
         stop-color="#dfdfe1"
         offset=".04" />
      <stop
         id="stop3303-8"
         stop-color="#efeff0"
         offset=".96" />
      <stop
         id="stop3301-3"
         stop-color="#fff"
         offset=".98" />
      <stop
         id="stop3295-3"
         stop-color="#676767"
         offset="1" />
    </linearGradient>
    <linearGradient
       id="linearGradient3231-9">
      <stop
         id="stop3233-3"
         stop-color="#fff"
         offset="0" />
      <stop
         id="stop3235-8"
         stop-opacity="0"
         offset="1" />
    </linearGradient>
    <linearGradient
       inkscape:collect="always"
       xlink:href="#linearGradient3231-9"
       id="linearGradient3051-1"
       gradientUnits="userSpaceOnUse"
       gradientTransform="matrix(1.0092,0,0,1.0058,-11.91624,-80.10579)"
       x1="525.28003"
       y1="97.767998"
       x2="656.59998"
       y2="423.04001" />
    <linearGradient
       id="linearGradient3866">
      <stop
         id="stop3868"
         stop-color="#fff"
         offset="0" />
      <stop
         id="stop3870"
         stop-opacity="0"
         offset="1" />
    </linearGradient>
    <linearGradient
       id="linearGradient3321-5"
       y2="267.47"
       gradientUnits="userSpaceOnUse"
       x2="611.14001"
       gradientTransform="matrix(1,0,0,0.99361,0,0.72801)"
       y1="267.47"
       x1="130.31">
      <stop
         id="stop3315-6"
         stop-color="#9c5da6"
         offset="0" />
      <stop
         id="stop3317-9"
         stop-color="#5b325b"
         offset="1" />
    </linearGradient>
    <linearGradient
       id="linearGradient3447-4"
       y2="478.26999"
       gradientUnits="userSpaceOnUse"
       x2="695.5"
       gradientTransform="matrix(1.0083,0,0,1,-3.098,-2.7751)"
       y1="484.17001"
       x1="700.01001">
      <stop
         id="stop3391-9"
         offset="0" />
      <stop
         id="stop3393-2"
         stop-color="#fbfcff"
         stop-opacity="0"
         offset="1" />
    </linearGradient>
    <filter
       id="filter3996"
       inkscape:label="Drop Shadow"
       color-interpolation-filters="sRGB">
      <feFlood
         id="feFlood3998"
         flood-opacity="0.2"
         flood-color="rgb(0,0,0)"
         result="flood" />
      <feComposite
         id="feComposite4000"
         in2="SourceGraphic"
         in="flood"
         operator="in"
         result="composite1" />
      <feGaussianBlur
         id="feGaussianBlur4002"
         stdDeviation="15"
         result="blur" />
      <feOffset
         id="feOffset4004"
         dx="-10"
         dy="10"
         result="offset" />
      <feComposite
         id="feComposite4006"
         in2="offset"
         in="SourceGraphic"
         operator="over"
         result="composite2" />
    </filter>
    <filter
       id="filter4182"
       inkscape:label="Drop Shadow"
       color-interpolation-filters="sRGB">
      <feFlood
         id="feFlood4184"
         flood-opacity="0.1"
         flood-color="rgb(0,0,0)"
         result="flood" />
      <feComposite
         id="feComposite4186"
         in2="SourceGraphic"
         in="flood"
         operator="in"
         result="composite1" />
      <feGaussianBlur
         id="feGaussianBlur4188"
         stdDeviation="2"
         result="blur" />
      <feOffset
         id="feOffset4190"
         dx="-1"
         dy="1"
         result="offset" />
      <feComposite
         id="feComposite4192"
         in2="offset"
         in="SourceGraphic"
         operator="over"
         result="composite2" />
    </filter>
    <filter
       id="filter4224"
       inkscape:label="Drop Shadow"
       color-interpolation-filters="sRGB">
      <feFlood
         id="feFlood4226"
         flood-opacity="0.1"
         flood-color="rgb(0,0,0)"
         result="flood" />
      <feComposite
         id="feComposite4228"
         in2="SourceGraphic"
         in="flood"
         operator="in"
         result="composite1" />
      <feGaussianBlur
         id="feGaussianBlur4230"
         stdDeviation="2"
         result="blur" />
      <feOffset
         id="feOffset4232"
         dx="-1"
         dy="1"
         result="offset" />
      <feComposite
         id="feComposite4234"
         in2="offset"
         in="SourceGraphic"
         operator="over"
         result="composite2" />
    </filter>
    <filter
       id="filter4293"
       inkscape:label="Drop Shadow"
       color-interpolation-filters="sRGB">
      <feFlood
         id="feFlood4295"
         flood-opacity="0.1"
         flood-color="rgb(0,0,0)"
         result="flood" />
      <feComposite
         id="feComposite4297"
         in2="SourceGraphic"
         in="flood"
         operator="in"
         result="composite1" />
      <feGaussianBlur
         id="feGaussianBlur4299"
         stdDeviation="2"
         result="blur" />
      <feOffset
         id="feOffset4301"
         dx="-1"
         dy="1"
         result="offset" />
      <feComposite
         id="feComposite4303"
         in2="offset"
         in="SourceGraphic"
         operator="over"
         result="composite2" />
    </filter>
    <filter
       id="filter4305"
       inkscape:label="Drop Shadow"
       color-interpolation-filters="sRGB">
      <feFlood
         id="feFlood4307"
         flood-opacity="0.1"
         flood-color="rgb(0,0,0)"
         result="flood" />
      <feComposite
         id="feComposite4309"
         in2="SourceGraphic"
         in="flood"
         operator="in"
         result="composite1" />
      <feGaussianBlur
         id="feGaussianBlur4311"
         stdDeviation="2"
         result="blur" />
      <feOffset
         id="feOffset4313"
         dx="-1"
         dy="1"
         result="offset" />
      <feComposite
         id="feComposite4315"
         in2="offset"
         in="SourceGraphic"
         operator="over"
         result="composite2" />
    </filter>
    <filter
       id="filter4317"
       inkscape:label="Drop Shadow"
       color-interpolation-filters="sRGB">
      <feFlood
         id="feFlood4319"
         flood-opacity="0.1"
         flood-color="rgb(0,0,0)"
         result="flood" />
      <feComposite
         id="feComposite4321"
         in2="SourceGraphic"
         in="flood"
         operator="in"
         result="composite1" />
      <feGaussianBlur
         id="feGaussianBlur4323"
         stdDeviation="2"
         result="blur" />
      <feOffset
         id="feOffset4325"
         dx="-1"
         dy="1"
         result="offset" />
      <feComposite
         id="feComposite4327"
         in2="offset"
         in="SourceGraphic"
         operator="over"
         result="composite2" />
    </filter>
    <filter
       id="filter4349"
       inkscape:label="Drop Shadow"
       color-interpolation-filters="sRGB">
      <feFlood
         id="feFlood4351"
         flood-opacity="0.1"
         flood-color="rgb(0,0,0)"
         result="flood" />
      <feComposite
         id="feComposite4353"
         in2="SourceGraphic"
         in="flood"
         operator="in"
         result="composite1" />
      <feGaussianBlur
         id="feGaussianBlur4355"
         stdDeviation="2"
         result="blur" />
      <feOffset
         id="feOffset4357"
         dx="-1"
         dy="1"
         result="offset" />
      <feComposite
         id="feComposite4359"
         in2="offset"
         in="SourceGraphic"
         operator="over"
         result="composite2" />
    </filter>
    <filter
       id="filter4361"
       inkscape:label="Drop Shadow"
       color-interpolation-filters="sRGB">
      <feFlood
         id="feFlood4363"
         flood-opacity="0.1"
         flood-color="rgb(0,0,0)"
         result="flood" />
      <feComposite
         id="feComposite4365"
         in2="SourceGraphic"
         in="flood"
         operator="in"
         result="composite1" />
      <feGaussianBlur
         id="feGaussianBlur4367"
         stdDeviation="2"
         result="blur" />
      <feOffset
         id="feOffset4369"
         dx="-1"
         dy="1"
         result="offset" />
      <feComposite
         id="feComposite4371"
         in2="offset"
         in="SourceGraphic"
         operator="over"
         result="composite2" />
    </filter>
    <filter
       id="filter4373"
       inkscape:label="Drop Shadow"
       color-interpolation-filters="sRGB">
      <feFlood
         id="feFlood4375"
         flood-opacity="0.1"
         flood-color="rgb(0,0,0)"
         result="flood" />
      <feComposite
         id="feComposite4377"
         in2="SourceGraphic"
         in="flood"
         operator="in"
         result="composite1" />
      <feGaussianBlur
         id="feGaussianBlur4379"
         stdDeviation="2"
         result="blur" />
      <feOffset
         id="feOffset4381"
         dx="-1"
         dy="1"
         result="offset" />
      <feComposite
         id="feComposite4383"
         in2="offset"
         in="SourceGraphic"
         operator="over"
         result="composite2" />
    </filter>
  </defs>
  <metadata
     id="metadata53">
    <rdf:RDF>
      <cc:Work>
        <dc:format>image/svg+xml</dc:format>
        <dc:type
           rdf:resource="http://purl.org/dc/dcmitype/StillImage" />
        <cc:license
           rdf:resource="http://creativecommons.org/licenses/by-sa/3.0/" />
        <dc:publisher>
          <cc:Agent
             rdf:about="http://openclipart.org/">
            <dc:title></dc:title>
          </cc:Agent>
        </dc:publisher>
        <dc:title></dc:title>
        <dc:date></dc:date>
        <dc:description></dc:description>
        <dc:source></dc:source>
        <dc:creator>
          <cc:Agent>
            <dc:title></dc:title>
          </cc:Agent>
        </dc:creator>
        <dc:subject>
          <rdf:Bag />
        </dc:subject>
      </cc:Work>
      <cc:License
         rdf:about="http://creativecommons.org/licenses/by-sa/3.0/">
        <cc:permits
           rdf:resource="http://creativecommons.org/ns#Reproduction" />
        <cc:permits
           rdf:resource="http://creativecommons.org/ns#Distribution" />
        <cc:requires
           rdf:resource="http://creativecommons.org/ns#Notice" />
        <cc:requires
           rdf:resource="http://creativecommons.org/ns#Attribution" />
        <cc:permits
           rdf:resource="http://creativecommons.org/ns#DerivativeWorks" />
        <cc:requires
           rdf:resource="http://creativecommons.org/ns#ShareAlike" />
      </cc:License>
    </rdf:RDF>
  </metadata>
  <g
     inkscape:groupmode="layer"
     id="layer8"
     inkscape:label="Airport Flight Paths"
     style="display:inline">
    <path
       style="display:inline;opacity:0.75720167;fill:#337a92;fill-opacity:1;stroke:none"
       d="m 1077.8878,835.47908 2.9182,1.14401 116.767,-349.54466 c 0.4547,-1.62832 0.3616,-4.48058 -2.5048,-6.04151 l -107.6843,-0.91528 c -1.4549,0.22202 -3.9071,2.47535 -4.5319,4.44659 0,0 -49.2253,148.72611 -49.9238,150.64213 -0.1838,0.6449 0.2603,2.37066 1.2279,3.33694 7.7121,5.51114 3.4244,14.04232 -0.7279,15.82265 -3.1666,2.04676 -10.0684,1.87178 -13.1589,-5.90802 -0.3972,-1.66665 -8.0512,-3.92358 -8.0512,-3.92358 l -5.4584,16.93517 -8.59794,-2.85932 5.56284,-16.72689 1.7712,-0.1054 114.7893,-346.73014 -1.3026,-0.25957 6.0961,-17.54774 8.5328,2.79441 -6.1049,17.37342 c 0,0 5.5555,2.0624 6.1631,1.61995 3.9488,-2.92215 12.4227,-4.30018 15.9176,3.92883 1.0547,12.97011 -7.9068,10.09544 -10.6214,13.36673 -0.4943,0.8339 -11.2319,33.85016 -11.2319,33.85016 -0.8646,2.14308 1.0913,5.39776 2.5829,6.00231 l 6.7024,2.0988 -1.059,3.44564 -6.709,-2.14437 c 0,0 -3.6735,-1.0264 -5.2606,1.72285 -0.2471,0.48203 -0.8127,1.79139 -1.105,2.80096 -0.4932,2.46186 1.3034,5.45997 2.8694,6.01148 l 2.3026,0.84635 -1.2058,3.01168 c 0,0 -0.8272,-1.18523 -3.2309,-1.24805 -1.1419,0.20343 -4.23,1.20261 -5.1853,4.90547 0,0 -14.2649,42.25037 -14.5217,43.6688 -0.2199,1.6763 2.1633,4.49959 5.2668,4.30405 0,0 25.4645,0.47701 26.5453,0.16366 2.7799,-0.67015 3.5593,-2.63632 3.6401,-5.73993 l 4.5985,-0.28844 c 0,0 0.1093,2.86415 0.3215,3.61001 0.6459,1.47306 2.6064,3.02296 4.7429,2.96619 l 65.8503,0.37118 c 1.4181,-0.20356 3.6967,-1.71851 4.3216,-3.59763 l 47.2564,-143.66311 c 0.8733,-2.25696 0.3408,-5.7992 -3.3262,-8.06225 l -36.5178,-35.00905 2.6722,-3.64548 35.4951,32.96443 c 1.5639,1.30132 5.4966,0.56926 6.563,-1.98421 l 22.5625,-68.3664 c 1.1313,-2.61862 -0.044,-6.52504 -2.8049,-6.70548 l -40.7035,-4.46513 0.4656,-4.53274 43.7125,4.81472 5.8739,-18.70673 18.7592,6.23862 -5.8743,18.1858 c 2.2276,0.74082 4.4806,0.62205 4.4806,0.62205 1.6672,0.077 8.2408,-5.20235 10.3619,-7.66537 5.6491,-4.97914 13.4403,-0.99914 16.047,1.86437 2.9986,4.29592 3.6545,10.93775 -3.6073,19.20006 l -14.1665,43.11974 c 0.2101,2.50053 1.2538,5.10461 4.328,5.77974 l 8.129,2.70339 5.3664,0.56936 -1.0911,4.32476 c 0,0 -3.8293,-0.23179 -6.1473,0.21265 l -11.7735,0.42493 c -0.9897,0.10486 -3.3595,0.96611 -4.0617,2.81605 l -3.5607,11.22923 c 0,1.04195 1.3576,4.53147 3.8846,5.02466 l 15.8921,3.89623 -1.1418,6.04396 -5.3652,0.9936 c 0,0 -2.3177,0.96537 -2.5505,3.23175 l -1.0892,7.19009 c -0.3373,1.79754 -1.6371,5.70567 -3.5883,9.22354 l -10.9313,88.20709 c 0,0 1.2539,5.10461 2.9746,7.23938 l 9.644,9.11024 16.1092,16.29505 c 0,0 3.8033,0.30997 4.9494,0.25711 0,0 -2.838,2.00765 -2.8095,5.31577 l 5.0066,7.91525 c 1.4336,1.17115 8.2345,4.47458 11.0739,4.81123 l 52.8526,0.82302 22.9102,-17.7287 13.0256,2.07489 -24.6287,18.71968 -0.8837,2.65758 0.5292,11.98182 -11.253,-0.0964 c 0.9888,-1.66781 2.5215,-7.58183 -4.1215,-8.4889 l -97.8899,-0.60954 c -1.9794,0.2098 -4.4011,1.48782 -5.8841,4.11972 l -2.0221,13.91118 c -0.4098,10.10703 1.5221,16.3052 4.5467,20.52294 l 8.1337,9.73643 -6.3529,3.96371 -7.3521,-9.21597 c 0,0 -5.3149,-1.5071 -7.0071,-0.0733 l -34.5468,27.92156 c 0,0 -1.3262,3.20494 0.2642,5.20959 l 7.0127,8.40871 -4.6601,3.57182 -5.788,-7.65417 c -1.0946,-0.88489 -3.7262,-1.84684 -5.4704,-0.25669 l -27.9603,22.47292 c 0,0 -1.5615,1.82448 -2.8089,6.09723 0,0 -4.2374,12.21958 -4.3669,13.39192 1.1746,3.5157 5.2652,4.78919 7.3998,3.06853 l 12.8093,-9.54248 0.9414,5.52153 c -1.0681,-0.44205 -25.8259,20.23134 -25.8259,20.23134 0,0 -2.4987,2.55446 -3.4864,5.78514 l -12.0097,35.59028 c -0.7532,3.04814 -0.2821,6.32998 3.3911,7.03068 1.6674,0.20725 3.1262,0.51888 3.1262,0.51888 l -2.2348,7.76389 -2.6055,-1.04011 c -1.8236,-0.34609 -5.91,-1.92318 -8.384,5.11128 l -18.3782,55.00057 -5.5337,20.81648 c 0.1939,5.29429 2.1511,7.7979 7.0912,8.95577 l -3.8999,10.68247 c -1.9158,-0.51439 -6.5511,-1.91059 -9.5325,1.51734 -2.8332,4.82776 -8.7384,20.01118 -8.7384,20.01118 l -8.5785,25.27272 2.0338,2.75974 7.3472,2.44347 -1.1957,3.59544 -8.0769,-2.85963 -2.4995,1.773 -12.1136,35.90285 0.056,7.13726 c -1.0633,6.59092 -7.5991,10.05986 -11.0374,10.21862 -1.5109,-0.15522 -8.2569,0.55273 -11.9359,-8.48347 l -2.1438,-11.3036 c -0.983,-1.71916 -2.6411,-2.72354 -5.212,-3.12214 l -6.0305,18.13388 -19.3325,-6.60296 6.6561,-17.92584"
       id="path3067-3"
       inkscape:connector-curvature="0"
       sodipodi:nodetypes="ccccccccccccccccccccccccccccccccccccccccccccccccccccccccccccccccccccccccccccccccccccccccccccccccccccccccccccccccccccccccccccccccccccccccccccccc" />
    <path
       style="display:inline;fill:#6a6963;fill-opacity:1;stroke:none"
       d="m 1352.9128,243.41938 -9.3422,51.0611 8.545,1.45281 19.9603,21.50698 c 13.2861,35.35511 -42.1013,89.2579 -42.1013,89.2579 0.8069,4.12363 6.2791,9.08662 9.6832,9.06779 3.404,-0.0189 9.9738,-0.82353 12.539,-1.01491 -0.6726,0.64354 -10.1742,6.99102 -11.9201,8.17817 -1.7811,1.71289 -0.2521,4.14662 2.3612,4.14467 3.7733,-0.3591 21.9313,0.45843 24.6883,0.20353 2.6244,-3.51082 4.3052,-7.4528 4.3052,-7.4528 l -7.4353,-7.76174 c 8.0989,-2.68859 19.4023,-7.39326 27.9869,-14.60804 4.2921,-3.60741 12.0937,-12.58545 12.0937,-12.58545 l 27.2971,14.97268 -5.0678,3.22608 -2.817,18.70602 -23.3266,-1.1282 -0.1865,7.54949 34.5389,0.19231 3.9147,-24.72237 15.8963,8.4794 -1.3219,8.62226 17.2184,-0.14286 8.3632,-52.11795 -60.4252,-9.9285 8.5749,-49.56793 c -24.1852,-44.85144 -53.4706,-65.9568 -74.0224,-65.59044 z"
       id="path3879-4"
       inkscape:connector-curvature="0"
       sodipodi:nodetypes="cccccsccccccsccccccccccccccc" />
    <path
       style="display:inline;fill:#6a6963;fill-opacity:1;stroke:none"
       d="m 1393.6818,485.69911 9.5722,-8.11101 10.3227,11.78097 c 6.0739,-6.45081 3.1272,-6.0804 15.4256,-13.89853 3.9431,2.1707 0.6636,1.14162 1.6675,14.18143 l 24.0173,-1.34278 -0.579,15.03025 -4.1101,22.69493 -141.0348,184.87623 -28.6033,-24.73519 41.9289,-31.32273 -16.2362,-20.63685 -33.8157,24.70512 -22.6218,-4.69954 4.6148,-38.6093 -8.9852,-1.97624 c 0,0 1.1983,-11.35192 2.7849,-14.8174 l 15.7583,-11.94637 14.3073,20.47188 15.6194,0.28392 7.2256,7.80458 15.4765,6.62013 17.5504,22.53257 c 27.7824,-19.55857 22.7894,-20.4559 2.4504,-44.53604 l -17.208,12.12905 -12.3885,-15.90544 c -4.3891,-8.27034 0.6605,-15.98362 6.7642,-20.33918 l 52.7278,-34.51672 -27.3205,-34.1298 28.9023,-22.30689 39.8175,47.12484 20.6636,-31.31429 -4.9226,-5.68176 -13.8436,10.61887 z"
       id="path3881-0"
       inkscape:connector-curvature="0"
       sodipodi:nodetypes="ccccccccccccccccccccccccccccccccccc" />
    <path
       style="display:inline;fill:#e9644b;fill-opacity:1"
       inkscape:connector-curvature="0"
       d="m 1089.7186,823.31932 c 1.097,-3.2306 5.9597,-1.58669 4.8423,1.73774 l -4.5731,13.52731 15.0888,17.81367 -1.6859,4.98683 -16.7612,-12.567 -3.4179,10.1107 3.195,4.88482 -1.3321,3.94036 -6.0175,-4.34273 -7.4399,-0.20662 1.332,-3.94036 5.4805,-1.95215 3.4179,-10.11054 -20.9488,-0.18073 1.6861,-4.98738 22.5302,-5.09617 4.6036,-13.61783 0,0 z"
       id="path3" />
    <rect
       style="opacity:1;fill:#000000;fill-opacity:0;fill-rule:nonzero;stroke:#347a93;stroke-opacity:0.75686275"
       id="rect6014"
       width="1920"
       height="1080"
       x="-2.4909155"
       y="1.4336125" />
  </g>
  <g
     inkscape:groupmode="layer"
     id="layer1"
     inkscape:label="whitespace"
     style="display:inline">
    <g
       style="display:inline"
       id="g6445">
      <path
         sodipodi:nodetypes="cccccccccccccc"
         inkscape:connector-curvature="0"
         id="path3837-5"
         d="m 1135.6864,744.45514 c 1.1254,0.28738 6.4303,5.78444 6.853,6.44593 0.3791,0.21285 0.8001,3.39102 -0.7192,7.57341 -0.7362,2.79344 -4.1926,14.92548 -4.1926,14.92548 -0.9702,3.49689 -9.2304,28.52827 -9.2304,28.52827 0,0 -3.1277,9.98445 -3.8354,11.91929 -0.3899,1.17242 -1.5345,2.87513 -1.9883,3.85282 0,0 -4.6303,12.95688 -5.951,15.38241 -1.8523,3.63747 -3.906,3.8226 -6.5124,3.73703 l -1.1672,2.73692 c 0,0 -4.6207,-2.14429 -5.8275,-3.15323 -2.2859,-1.6284 -3.5667,-5.7002 -1.8828,-10.95639 0,0 23.5994,-71.92787 25.1943,-75.56423 1.9361,-3.69642 5.6199,-6.46451 9.2595,-5.42771 z"
         style="display:inline;fill:#ffffff;fill-opacity:1;stroke:none" />
      <path
         sodipodi:nodetypes="ccccccccccc"
         inkscape:connector-curvature="0"
         id="path3839-6"
         d="m 1138.1629,736.08446 c 0.82,0.14263 9.0422,-0.14963 9.6061,-0.39616 1.008,-0.22898 3.2482,-3.89171 3.2482,-3.89171 0.393,-0.65056 7.4452,-19.70285 7.7846,-20.67503 l 42.8086,-128.72269 c 0.4897,-2.29235 0.3128,-5.09594 -3.2883,-3.28586 -1.1223,0.91575 -15.6426,14.29995 -15.6426,14.29995 -2.9926,3.66981 -6.8225,10.13031 -8.9227,15.07897 0,0 -39.6628,118.44384 -40.1641,120.08791 -0.1358,0.47661 0.016,3.81646 0.5995,4.61894 0.712,0.7576 3.4348,2.90284 3.9707,2.88568 z"
         style="display:inline;fill:#ffffff;fill-opacity:1;stroke:none" />
      <path
         sodipodi:nodetypes="ccccccc"
         inkscape:connector-curvature="0"
         id="path3841-7"
         d="m 1201.0871,526.8581 c 1.754,-1.99474 3.0906,-0.13846 3.0295,0.45511 0,0 7.6766,22.34871 7.4086,24.31589 0.048,0.53784 0.8575,1.66406 -1.8492,4.84248 -0.7226,1.07946 -23.4254,23.81786 -24.4191,24.34674 -1.6405,-0.0543 -2.2027,-1.4384 -2.1683,-2.22497 0.1019,-0.57988 16.7598,-50.06018 17.9985,-51.73525 z"
         style="display:inline;fill:#ffffff;fill-opacity:1;stroke:none" />
      <path
         sodipodi:nodetypes="ccccccccc"
         inkscape:connector-curvature="0"
         id="path3843-4"
         d="m 1231.5374,482.84562 c 0,0 -8.3248,-2.50445 -11.5902,-1.7675 -2.7447,0.9102 -4.8349,4.18673 -5.7362,6.31754 -1.1094,2.75617 -2.9745,8.87771 -3.4592,11.49443 -1.0103,4.0043 -2.1237,11.85372 -1.9088,19.13023 -0.1869,8.0978 3.6363,19.92279 4.8524,22.06337 1.2445,1.28192 1.8939,0.82822 2.2317,-0.18788 l 17.4782,-52.00944 c 0.5694,-0.93912 -0.3056,-4.52116 -1.8679,-5.04075 z"
         style="display:inline;fill:#ffffff;fill-opacity:1;stroke:none" />
      <path
         sodipodi:nodetypes="ccccccccccc"
         inkscape:connector-curvature="0"
         id="path3845-9"
         d="m 1239.9985,459.5899 c -0.9378,-0.27196 -13.5461,-0.31653 -14.9146,0.0305 -0.7566,0.1494 -1.8222,1.25335 -2.4718,2.24026 0,0 -1.2299,3.18234 -1.7119,5.30771 -0.1659,2.431 -0.01,3.763 1.5291,4.7543 2.6501,1.07349 5.2492,1.35944 9.5589,1.06293 1.1446,-0.0604 4.168,0.0709 4.168,0.0709 0.4799,0.19945 1.7398,-0.29883 2.6972,-1.82498 0,0 2.2708,-7.06823 2.5054,-8.3536 0.2375,-1.00371 -0.5792,-3.02799 -1.3603,-3.2878 z"
         style="display:inline;fill:#ffffff;fill-opacity:1;stroke:none" />
      <path
         sodipodi:nodetypes="ccccccccccc"
         inkscape:connector-curvature="0"
         id="path3847-0"
         d="m 1244.3672,449.92908 c 0,0 -12.4338,1.63921 -14.0539,1.10043 -2.8593,-0.87071 -2.675,-3.9371 -2.675,-3.9371 0,0 2.1368,-7.32526 2.9396,-8.64614 0.2039,-0.61272 2.118,-3.65211 4.5065,-4.27554 0,0 3.6746,-0.67923 5.0078,-0.17912 0,0 4.356,0.53324 5.7951,1.12526 0,0 2.1605,1.03932 2.6867,1.7757 0.5743,0.59193 0.5625,2.75336 0.5625,2.75336 -0.3155,2.30106 -2.324,7.56772 -2.324,7.56772 0,0 -0.4312,2.26254 -2.4453,2.71543 z"
         style="display:inline;fill:#ffffff;fill-opacity:1;stroke:none" />
      <path
         sodipodi:nodetypes="ccccccccc"
         inkscape:connector-curvature="0"
         id="path3849-0"
         d="m 1252.6444,423.20392 c 0,0 -11.1174,2.68646 -11.813,2.45519 -2.4959,-0.83004 -3.7804,-4.75598 -3.3672,-8.73122 0.048,-0.96598 41.9933,-127.09091 41.9933,-127.09091 1.3644,-3.96584 5.4018,-8.4544 8.8755,-7.422 l 8.674,2.88468 c 0.7941,0.75516 3.096,2.44138 0.7485,7.86035 l -42.1428,126.85709 c -0.4145,1.51951 -1.4976,3.00074 -2.9683,3.18686 z"
         style="display:inline;fill:#ffffff;fill-opacity:1;stroke:none" />
      <path
         sodipodi:nodetypes="cccccccccccc"
         inkscape:connector-curvature="0"
         id="path3851-5"
         d="m 1302.0309,276.15177 c 0,0 -3.8559,0.19342 -5.3369,0.39537 -0.9719,0.024 -4.7748,1.79757 -6.2038,1.84319 0,0 -2.3489,-0.0867 -4.1745,-0.78063 -0.9837,-0.32714 -1.5146,-3.36833 -1.3587,-3.83736 0.395,-2.73329 22.2076,-67.35596 22.2076,-67.35596 2.2329,-5.94155 4.7168,-7.80656 7.7625,-8.26937 1.5305,0.42216 7.2572,4.84411 7.4862,5.7016 2.4748,2.99312 1.4325,6.90004 1.0862,8.52109 0,0 -6.0159,20.79453 -6.8062,23.17111 l -12.3817,37.81042 c -0.228,0.87903 -1.0574,2.59979 -2.2807,2.80054 z"
         style="display:inline;fill:#ffffff;fill-opacity:1;stroke:none" />
      <path
         sodipodi:nodetypes="ccccccccc"
         inkscape:connector-curvature="0"
         id="path3853-6"
         d="m 1312.7979,296.07997 c -2.8211,-0.35523 -3.9886,3.69686 -4.3394,4.75205 l -38.4509,117.83407 c -1.6374,5.315 1.7505,7.19034 3.6521,7.47561 l 25.4922,0.49804 c 1.6668,-0.31372 5.244,-0.93557 5.9052,-5.27307 0,0 14.2998,-109.65705 14.3118,-111.25904 l -3.397,-11.19635 c -1.0084,-1.6418 -1.539,-2.52788 -3.174,-2.83131 z"
         style="display:inline;fill:#ffffff;fill-opacity:1;stroke:none" />
      <path
         sodipodi:nodetypes="cccccccccc"
         inkscape:connector-curvature="0"
         id="path3855-4"
         d="m 1268.3035,434.86468 27.6733,0.58358 c 2.6335,0.43466 5.1779,2.77235 5.6117,5.12204 0,0 -0.1071,6.31795 -1.1762,8.48861 0,0 -1.0752,2.928 -5.2439,3.58661 l -21.407,-0.51466 c -4.1165,0.0935 -10.7689,-5.74237 -11.4959,-1.69456 0,0 -2.3279,-0.72947 -1.4006,-3.90956 l 2.7047,-8.13265 c 1.0869,-2.48553 2.7951,-3.57267 4.7339,-3.52941 z"
         style="display:inline;fill:#ffffff;fill-opacity:1;stroke:none" />
      <path
         sodipodi:nodetypes="ccccccccccccc"
         inkscape:connector-curvature="0"
         id="path3857-1"
         d="m 1294.0415,461.57098 -19.3504,-0.87787 -9.4536,2.08642 -6.4087,-0.14304 0.4933,-2.09112 c -1.2972,-0.21081 -2.718,0.33894 -4.0711,2.77608 0,0 -2.3698,6.42867 -2.3228,7.26631 -0.051,0.28383 0.9269,3.09097 2.0361,3.27944 2.5565,-0.0733 19.2614,3.10559 26.5101,3.71259 0,0 8.4927,0.40368 10.0918,0.29389 2.9544,-0.66152 5.0449,-1.99265 6.3421,-4.84929 0,0 1.0413,-5.12176 0.5986,-6.7927 -0.1507,-0.85209 -1.3571,-3.8275 -4.4654,-4.66071 z"
         style="display:inline;fill:#ffffff;fill-opacity:1;stroke:none" />
      <path
         sodipodi:nodetypes="ccccccccc"
         inkscape:connector-curvature="0"
         id="path3859-3"
         d="m 1247.326,487.23708 c 0,0 -13.8318,40.85349 -14.9243,45.9839 -0.6695,3.95129 4.7283,5.34742 5.9706,4.19538 l 48.354,-39.1056 c 1.8675,-2.09164 2.1884,-3.25638 2.3049,-4.32443 l -0.01,-3.68375 c -0.4964,-2.22685 -3.5102,-3.16081 -4.8649,-3.4594 -1.5762,-0.28544 -31.1654,-0.78888 -31.1654,-0.78888 -3.1423,-0.37646 -4.002,-3.89498 -5.6702,1.18278 z"
         style="display:inline;fill:#ffffff;fill-opacity:1;stroke:none" />
      <path
         sodipodi:nodetypes="ccccccc"
         inkscape:connector-curvature="0"
         id="path3861-4"
         d="m 1311.4284,409.27148 c 0,0 13.9576,12.58471 15.6389,14.44603 0.7427,0.50741 0.8611,1.97904 -0.311,2.24031 0,0 -2.9494,0.84212 -3.9456,1.03171 -0.7554,0.18285 -9.6641,-0.30592 -9.6641,-0.30592 -2.032,-0.28512 -3.6225,-2.41999 -3.4154,-4.47796 z"
         style="display:inline;fill:#ffffff;fill-opacity:1;stroke:none" />
      <path
         sodipodi:nodetypes="ccccccccc"
         inkscape:connector-curvature="0"
         id="path3863-3"
         d="m 1329.417,436.75138 c 0,0 -19.3549,-0.92741 -20.1455,-0.76503 -0.7607,0.25739 -2.0612,1.27 -2.626,2.4148 -0.2208,0.66379 -0.854,8.21527 -0.6452,9.24877 0.411,1.80962 3.2198,5.36499 6.2145,5.31186 0,0 28.3084,0.98475 28.7081,0.89078 1.7977,-0.79147 1.8214,-1.22161 1.5274,-2.73716 l -7.9763,-11.55947 c -0.6593,-0.78635 -3.3163,-2.5942 -5.057,-2.80455 z"
         style="display:inline;fill:#ffffff;fill-opacity:1;stroke:none" />
      <path
         sodipodi:nodetypes="ccccccccc"
         inkscape:connector-curvature="0"
         id="path3865-4"
         d="m 1202.0344,456.86451 c 1.9602,0.56004 3.4629,2.44332 3.69,3.91596 0.092,1.01078 -3.1851,10.61753 -3.1851,10.61753 -0.4982,1.25511 -2.8975,2.36123 -3.6365,2.39226 l -106.0981,-0.25481 c -1.345,-0.1788 -4.5955,-2.41795 -4.0314,-4.80491 l 2.7024,-9.41404 c 0.9192,-1.74669 2.6477,-2.745 5.8117,-2.75095 0,0 103.2732,-0.0588 104.747,0.29896 z"
         style="display:inline;fill:#ffffff;fill-opacity:1;stroke:none" />
      <path
         sodipodi:nodetypes="ccccccccc"
         inkscape:connector-curvature="0"
         id="path3867-0"
         d="m 1082.285,456.07415 -6.0532,-0.008 c -1.3056,0.007 -2.5272,1.60558 -2.9399,2.27029 l -3.3516,10.1933 c -0.2508,2.48289 1.64,3.71313 3.5186,4.05724 l 5.7592,0.43168 c 0.8209,-0.0479 2.4385,-0.99351 2.8859,-2.56903 l 3.1834,-9.68776 c 0.3168,-1.29815 -0.9765,-4.09407 -3.0024,-4.68756 z"
         style="display:inline;fill:#ffffff;fill-opacity:1;stroke:none" />
      <path
         sodipodi:nodetypes="ccccccccc"
         inkscape:connector-curvature="0"
         id="path3869-3"
         d="m 1064.7656,484.66588 -14.1673,42.9458 c -0.4872,1.29207 0.2493,4.20633 1.9274,4.80777 0,0 4.4499,1.54506 5.4575,1.68477 0.755,0.2078 3.035,-0.77021 3.7058,-2.15311 l 15.5149,-47.22867 c 0.303,-0.68049 0.4266,-2.8964 -1.4796,-3.96435 -0.6167,-0.33536 -2.3115,-1.4632 -5.1083,-1.35161 -1.0363,0.34983 -4.8313,1.38813 -5.8504,5.2594 z"
         style="display:inline;fill:#ffffff;fill-opacity:1;stroke:none" />
      <path
         sodipodi:nodetypes="ccccccccc"
         inkscape:connector-curvature="0"
         id="path3871-5"
         d="m 1050.2588,536.70039 c 0.9553,-0.0197 5.9021,1.61566 5.9021,1.61566 1.2992,0.73887 2.3658,2.87962 1.3305,5.91131 l -30.6668,90.90035 c -0.626,1.94026 -2.0219,3.03098 -3.9101,3.11915 0,0 -4.4656,-1.11985 -5.5825,-1.79512 -0.9944,-0.35263 -2.2324,-3.143 -1.6902,-5.34994 l 30.0575,-89.56594 c 1.526,-4.83279 4.1414,-4.88238 4.5595,-4.83547 z"
         style="display:inline;fill:#ffffff;fill-opacity:1;stroke:none" />
      <path
         style="display:inline;fill:#ffffff;fill-opacity:1;stroke:none"
         d="m 1210.4943,431.96238 c 1.9565,0.57329 3.4463,2.46676 3.6634,3.94089 0.086,1.0114 -3.2568,10.59571 -3.2568,10.59571 -0.5068,1.25169 -2.9135,2.34151 -3.6527,2.36763 l -106.0939,-0.97346 c -1.3438,-0.18787 -4.5791,-2.44899 -3.9988,-4.83211 l 2.7661,-9.3955 c 0.931,-1.74046 2.6662,-2.72702 5.8301,-2.71151 0,0 103.2713,0.64057 104.7426,1.00835 z"
         id="path3873-2"
         inkscape:connector-curvature="0"
         sodipodi:nodetypes="ccccccccc" />
      <path
         style="display:inline;fill:#ffffff;fill-opacity:1;stroke:none"
         d="m 1090.8831,430.8643 c -0.8974,-0.29844 -5.322,-0.16592 -5.8907,0.0456 -1.7027,0.3961 -2.4736,1.62339 -2.8811,2.28985 -0.6379,1.11113 -3.3527,10.19292 -3.3527,10.19292 -0.2661,2.47783 1.4321,3.96487 3.2572,4.29118 l 5.7313,0.10147 c 0.7992,-0.0549 2.3819,-1.01232 2.8312,-2.58715 l 3.1845,-9.68739 c 0.3197,-1.29713 -0.9138,-4.07318 -2.8797,-4.64682 z"
         id="path3875-1"
         inkscape:connector-curvature="0"
         sodipodi:nodetypes="ccccccccc" />
      <path
         sodipodi:nodetypes="cccccccccc"
         inkscape:connector-curvature="0"
         id="path3877-0"
         d="m 1094.5343,425.11977 c 1.3246,-0.11191 3.0443,-2.16471 3.3139,-2.93445 l 35.4432,-106.57505 c 1.852,-4.5095 0.055,-5.85077 -0.4539,-6.35768 -1.009,-0.79595 -5.1804,-2.28709 -5.1804,-2.28709 -1.0494,-0.34901 -3.0994,0.51507 -3.7044,1.11184 -1.3077,1.16105 -1.7435,3.28313 -1.7435,3.28313 l -35.7859,108.06702 c -0.5728,1.68164 -0.2852,5.20655 2.8758,5.64398 1.228,0.30098 5.2352,0.0484 5.2352,0.0484 z"
         style="display:inline;fill:#ffffff;fill-opacity:1;stroke:none" />
    </g>
  </g>
</svg>
